{
  "componentName": "Contact",
  "description": "This is a contact us section component that provides contact information and a subscription form for exclusive updates.",
  "fields": [
    {
      "name": "title",
      "type": "string",
      "description": "The main headline or title of the section."
    },
    {
      "name": "contactMethods",
      "type": "array",
      "description": "A list of contact methods with icons, titles, and details. Should always have three methods.",
      "value": [
        {
          "name": "icon",
          "type": "image",
          "description": "The icon representing the contact method."
        },
        {
          "name": "methodTitle",
          "type": "string",
          "description": "The title of the contact method."
        },
        {
          "name":"details",
          "type": "string",
          "description": "The details of the contact method."
        }
      ]
    },
    {
      "name": "subscriptionTitle",
      "type": "string",
      "description": "The title for the subscription form section."
    },
    {
      "name": "subscriptionPlaceholder",
      "type": "string",
      "description": "The placeholder text for the email input field."
    },
    {
      "name": "subscriptionButtonLabel",
      "type": "string",
      "description": "The label for the subscription button."
    }
  ]
}
